…
### Exercise 7

I’m thinking of using a bar chart to demonstrate my message.

``` r
# first I want to find a day where there's a big gap between Mask and No Mask cases.
df %>%
  pivot_wider(names_from = mask_mandate, values_from = rolling_avg) %>%
  mutate(gap = Mask - `No Mask`) %>%
  arrange(desc(gap))
```

    ## # A tibble: 23 × 4
    ##    date        Mask `No Mask`   gap
    ##    <date>     <dbl>     <dbl> <dbl>
    ##  1 2020-07-12  24.3      9.52  14.8
    ##  2 2020-07-21  20.5      8.34  12.2
    ##  3 2020-07-20  19.8      8.34  11.4
    ##  4 2020-07-23  19.0      8.26  10.8
    ##  5 2020-07-22  19.0      8.49  10.6
    ##  6 2020-07-18  19.7      9.33  10.4
    ##  7 2020-07-19  19.1      8.82  10.3
    ##  8 2020-07-15  19.8      9.55  10.3
    ##  9 2020-07-13  19.0      8.80  10.2
    ## 10 2020-07-24  19.7      9.70  10.0
    ## # ℹ 13 more rows
…
